P(class=0)=0.72 P(wesley=0|0)=0.46 P(wesley=1|0)=0.54 P(romulan=0|0)=0.50 P(romulan=1|0)=0.50 P(poetry=0|0)=0.55 P(poetry=1|0)=0.45 P(honor=0|0)=0.54 P(honor=1|0)=0.46 P(tea=0|0)=0.57 P(tea=1|0)=0.43 P(barclay=0|0)=0.48 P(barclay=1|0)=0.52 
P(class=1)=0.28 P(wesley=0|1)=0.65 P(wesley=1|1)=0.35 P(romulan=0|1)=0.51 P(romulan=1|1)=0.49 P(poetry=0|1)=0.39 P(poetry=1|1)=0.61 P(honor=0|1)=0.34 P(honor=1|1)=0.66 P(tea=0|1)=0.29 P(tea=1|1)=0.71 P(barclay=0|1)=0.64 P(barclay=1|1)=0.36 

Accuracy on training set (800 instances): 81.12%

Accuracy on test set (203 instances): 77.83%

